{

"General" : {
  "ClearColor" : "#444444"
},

"Shader" : {
  "VertexShaderPath" : "shader/vertex_shader.glsl",
  "FragmentShaderPath" : "shader/fragment_shader.glsl",
  "SolidFragmentShaderPath" : "shader/solid_fragment_shader.glsl"
},

"DebugShader" : {
  "VertexShaderPath" : "shader/debug_vertex_shader.glsl",
  "FragmentShaderPath" : "shader/debug_fragment_shader.glsl"
},

"Manipulation" : {
  "PivotRotateSpeed" : 0.02,
  "NoPivotRotateSpeed" : 0.02,
  "MoveForwardSpeed": 0.02,
  "MoveToFrontOfPointerDistance" : 10
},

"Algorithm" : {
  "PointerBackOnSelection" : 0.02
}

}
